<svg width="37" height="37" viewBox="0 0 37 37" fill="none" xmlns="http://www.w3.org/2000/svg">
<path d="M21.0823 6.65538C20.4255 3.94821 16.5745 3.94821 15.9177 6.65538C15.4922 8.40517 13.488 9.23458 11.9525 8.29725C9.57221 6.84808 6.84962 9.57221 8.29879 11.951C8.51663 12.3083 8.64703 12.712 8.67938 13.1292C8.71173 13.5464 8.64511 13.9653 8.48494 14.3519C8.32478 14.7385 8.07559 15.0818 7.75767 15.3539C7.43974 15.626 7.06207 15.8192 6.65538 15.9177C3.94821 16.5745 3.94821 20.4255 6.65538 21.0823C7.0617 21.1811 7.43898 21.3744 7.75655 21.6465C8.07411 21.9185 8.323 22.2617 8.48298 22.648C8.64296 23.0344 8.70952 23.4531 8.67725 23.87C8.64497 24.2869 8.51478 24.6903 8.29725 25.0475C6.84808 27.4278 9.57221 30.1504 11.951 28.7012C12.3083 28.4834 12.712 28.353 13.1292 28.3206C13.5464 28.2883 13.9653 28.3549 14.3519 28.5151C14.7385 28.6752 15.0818 28.9244 15.3539 29.2423C15.626 29.5603 15.8192 29.9379 15.9177 30.3446C16.5745 33.0518 20.4255 33.0518 21.0823 30.3446C21.1811 29.9383 21.3744 29.561 21.6465 29.2435C21.9185 28.9259 22.2617 28.677 22.648 28.517C23.0344 28.357 23.4531 28.2905 23.87 28.3228C24.2869 28.355 24.6903 28.4852 25.0475 28.7028C27.4278 30.1519 30.1504 27.4278 28.7012 25.049C28.4834 24.6917 28.353 24.288 28.3206 23.8708C28.2883 23.4536 28.3549 23.0347 28.5151 22.6481C28.6752 22.2615 28.9244 21.9182 29.2423 21.6461C29.5603 21.374 29.9379 21.1808 30.3446 21.0823C33.0518 20.4255 33.0518 16.5745 30.3446 15.9177C29.9383 15.8189 29.561 15.6256 29.2435 15.3535C28.9259 15.0815 28.677 14.7383 28.517 14.352C28.357 13.9656 28.2905 13.5469 28.3228 13.13C28.355 12.7131 28.4852 12.3097 28.7028 11.9525C30.1519 9.57221 27.4278 6.84962 25.049 8.29879C24.6917 8.51663 24.288 8.64703 23.8708 8.67938C23.4536 8.71173 23.0347 8.64511 22.6481 8.48494C22.2615 8.32478 21.9182 8.07559 21.6461 7.75767C21.374 7.43974 21.1808 7.06207 21.0823 6.65538Z" stroke="#3B3B3C" stroke-width="2.5" stroke-linecap="round" stroke-linejoin="round"/>
<path d="M21.7704 21.7704C22.6377 20.903 23.125 19.7266 23.125 18.5C23.125 17.2734 22.6377 16.097 21.7704 15.2296C20.903 14.3623 19.7266 13.875 18.5 13.875C17.2734 13.875 16.097 14.3623 15.2296 15.2296C14.3623 16.097 13.875 17.2734 13.875 18.5C13.875 19.7266 14.3623 20.903 15.2296 21.7704C16.097 22.6377 17.2734 23.125 18.5 23.125C19.7266 23.125 20.903 22.6377 21.7704 21.7704Z" stroke="#3B3B3C" stroke-width="2.5" stroke-linecap="round" stroke-linejoin="round"/>
</svg>
